{
  "login": {
    "token": "ofhweohfowehfoew"
  },
  "users": [
    {
      "id": 1,
      "name": "Fabionewrw",
      "age": 20,
      "gender": "M",
      "city": "Trieste",
      "birthday": 1598910648000,
      "bitcoin": 1.1232472979284724
    },
    {
      "name": "nnnn",
      "city": "wefwe",
      "gender": "M",
      "id": 26
    },
    {
      "name": "wefwe",
      "city": "wefwe",
      "gender": "M",
      "id": 27
    },
    {
      "name": "efw",
      "city": "wefwe",
      "gender": "M",
      "id": 28
    },
    {
      "name": "wefwe",
      "city": "wefwe",
      "gender": "M",
      "id": 29
    }
  ]
}